{
  "response": {
    "status": "ok",
    "userTier": "developer",
    "total": 2020746,
    "startIndex": 1,
    "pageSize": 10,
    "currentPage": 1,
    "pages": 202075,
    "orderBy": "newest",
    "results": [
      {
        "id": "uk-news/2018/mar/20/tories-attack-junckers-nauseating-letter-congratulating-putin",
        "type": "article",
        "sectionId": "world",
        "sectionName": "World news",
        "webPublicationDate": "2018-03-20T19:44:07Z",
        "webTitle": "Trump and Juncker under fire for hailing Putin election victory",
        "webUrl": "https://www.theguardian.com/uk-news/2018/mar/20/tories-attack-junckers-nauseating-letter-congratulating-putin",
        "apiUrl": "https://content.guardianapis.com/uk-news/2018/mar/20/tories-attack-junckers-nauseating-letter-congratulating-putin",
        "fields": {
          "thumbnail": "https://media.guim.co.uk/92f774b19c5c2307522a571c68804ea581c596c7/0_153_4777_2866/500.jpg"
        },
        "isHosted": false,
        "pillarId": "pillar/news",
        "pillarName": "News"
      },
      {
        "id": "us-news/2018/mar/20/russia-election-meddling-senators-release-security-recommendations",
        "type": "article",
        "sectionId": "us-news",
        "sectionName": "US news",
        "webPublicationDate": "2018-03-20T19:40:04Z",
        "webTitle": "Senators release election security recommendations to deter meddling",
        "webUrl": "https://www.theguardian.com/us-news/2018/mar/20/russia-election-meddling-senators-release-security-recommendations",
        "apiUrl": "https://content.guardianapis.com/us-news/2018/mar/20/russia-election-meddling-senators-release-security-recommendations",
        "fields": {
          "thumbnail": "https://media.guim.co.uk/c0b6450d547a315a182ab705f12fe182bd7c0ea8/0_25_3000_1800/500.jpg"
        },
        "isHosted": false,
        "pillarId": "pillar/news",
        "pillarName": "News"
      },
      {
        "id": "society/2018/mar/20/sure-start-funding-halved-in-eight-years-figures-show",
        "type": "article",
        "sectionId": "society",
        "sectionName": "Society",
        "webPublicationDate": "2018-03-20T19:21:42Z",
        "webTitle": "Sure Start funding halved in eight years, figures show",
        "webUrl": "https://www.theguardian.com/society/2018/mar/20/sure-start-funding-halved-in-eight-years-figures-show",
        "apiUrl": "https://content.guardianapis.com/society/2018/mar/20/sure-start-funding-halved-in-eight-years-figures-show",
        "fields": {
          "thumbnail": "https://media.guim.co.uk/6fb8456bcd712f14364e69b76dbaeda4bfab25dc/6_276_5455_3273/500.jpg"
        },
        "isHosted": false,
        "pillarId": "pillar/news",
        "pillarName": "News"
      },
      {
        "id": "film/2018/mar/20/black-panther-most-tweeted-about-movie-ever-twitter",
        "type": "article",
        "sectionId": "film",
        "sectionName": "Film",
        "webPublicationDate": "2018-03-20T19:15:41Z",
        "webTitle": "Black Panther becomes most tweeted-about movie ever",
        "webUrl": "https://www.theguardian.com/film/2018/mar/20/black-panther-most-tweeted-about-movie-ever-twitter",
        "apiUrl": "https://content.guardianapis.com/film/2018/mar/20/black-panther-most-tweeted-about-movie-ever-twitter",
        "fields": {
          "thumbnail": "https://media.guim.co.uk/74197e3a605968ae1ccd5c2f42d67a2ddc95512a/0_42_6000_3600/500.jpg"
        },
        "isHosted": false,
        "pillarId": "pillar/arts",
        "pillarName": "Arts"
      },
      {
        "id": "uk-news/2018/mar/20/cambridge-analytica-suspends-ceo-alexander-nix",
        "type": "article",
        "sectionId": "uk-news",
        "sectionName": "UK news",
        "webPublicationDate": "2018-03-20T19:10:13Z",
        "webTitle": "Cambridge Analytica suspends CEO Alexander Nix",
        "webUrl": "https://www.theguardian.com/uk-news/2018/mar/20/cambridge-analytica-suspends-ceo-alexander-nix",
        "apiUrl": "https://content.guardianapis.com/uk-news/2018/mar/20/cambridge-analytica-suspends-ceo-alexander-nix",
        "fields": {
          "thumbnail": "https://media.guim.co.uk/3419052a262daee692e97f5c91033e6feed1ef6b/0_0_2912_1748/500.jpg"
        },
        "isHosted": false,
        "pillarId": "pillar/news",
        "pillarName": "News"
      },
      {
        "id": "business/nils-pratley-on-finance/2018/mar/20/facebook-cambridge-analytica-mark-zuckerberg-shareholder-questions",
        "type": "article",
        "sectionId": "business",
        "sectionName": "Business",
        "webPublicationDate": "2018-03-20T19:07:07Z",
        "webTitle": "Facebook shareholders may also want to quiz Mark Zuckerberg | Nils Pratley",
        "webUrl": "https://www.theguardian.com/business/nils-pratley-on-finance/2018/mar/20/facebook-cambridge-analytica-mark-zuckerberg-shareholder-questions",
        "apiUrl": "https://content.guardianapis.com/business/nils-pratley-on-finance/2018/mar/20/facebook-cambridge-analytica-mark-zuckerberg-shareholder-questions",
        "fields": {
          "thumbnail": "https://media.guim.co.uk/0ab68eaa2dfee38e8ac3a5f140fb77ae932975ae/0_69_4392_2636/500.jpg"
        },
        "isHosted": false,
        "pillarId": "pillar/news",
        "pillarName": "News"
      },
      {
        "id": "world/2018/mar/20/spain-refuses-to-back-withdrawal-deal-over-gibraltar-concerns",
        "type": "article",
        "sectionId": "politics",
        "sectionName": "Politics",
        "webPublicationDate": "2018-03-20T19:05:43Z",
        "webTitle": "Spain refuses to back withdrawal deal over Gibraltar concerns",
        "webUrl": "https://www.theguardian.com/world/2018/mar/20/spain-refuses-to-back-withdrawal-deal-over-gibraltar-concerns",
        "apiUrl": "https://content.guardianapis.com/world/2018/mar/20/spain-refuses-to-back-withdrawal-deal-over-gibraltar-concerns",
        "fields": {
          "thumbnail": "https://media.guim.co.uk/c68e222031a1471852f26834f51251af0c2d39e3/0_86_2181_1308/500.jpg"
        },
        "isHosted": false,
        "pillarId": "pillar/news",
        "pillarName": "News"
      },
      {
        "id": "uk-news/2018/mar/20/spy-poisoning-police-focusing-on-skripals-movements",
        "type": "article",
        "sectionId": "uk-news",
        "sectionName": "UK news",
        "webPublicationDate": "2018-03-20T19:01:17Z",
        "webTitle": "Spy poisoning: police say investigation could last until summer",
        "webUrl": "https://www.theguardian.com/uk-news/2018/mar/20/spy-poisoning-police-focusing-on-skripals-movements",
        "apiUrl": "https://content.guardianapis.com/uk-news/2018/mar/20/spy-poisoning-police-focusing-on-skripals-movements",
        "fields": {
          "thumbnail": "https://media.guim.co.uk/b413c00bdd007667aa55c7b2e1459ff14f5014a6/0_273_4651_2791/500.jpg"
        },
        "isHosted": false,
        "pillarId": "pillar/news",
        "pillarName": "News"
      },
      {
        "id": "uk-news/2018/mar/20/cambridge-analytica-execs-boast-of-role-in-getting-trump-elected",
        "type": "article",
        "sectionId": "uk-news",
        "sectionName": "UK news",
        "webPublicationDate": "2018-03-20T19:00:07Z",
        "webTitle": "Cambridge Analytica execs boast of role in getting Trump elected",
        "webUrl": "https://www.theguardian.com/uk-news/2018/mar/20/cambridge-analytica-execs-boast-of-role-in-getting-trump-elected",
        "apiUrl": "https://content.guardianapis.com/uk-news/2018/mar/20/cambridge-analytica-execs-boast-of-role-in-getting-trump-elected",
        "fields": {
          "thumbnail": "https://media.guim.co.uk/935980766b66406994f5d22e0bc8b1fb70eec11f/0_0_2600_1560/500.jpg"
        },
        "isHosted": false,
        "pillarId": "pillar/news",
        "pillarName": "News"
      },
      {
        "id": "world/2018/mar/20/macron-launches-drive-to-boost-french-language-around-world",
        "type": "article",
        "sectionId": "world",
        "sectionName": "World news",
        "webPublicationDate": "2018-03-20T18:56:26Z",
        "webTitle": "Macron launches drive to boost French language around world",
        "webUrl": "https://www.theguardian.com/world/2018/mar/20/macron-launches-drive-to-boost-french-language-around-world",
        "apiUrl": "https://content.guardianapis.com/world/2018/mar/20/macron-launches-drive-to-boost-french-language-around-world",
        "fields": {
          "thumbnail": "https://media.guim.co.uk/134475fb3d49654d0839c6b2599cae36f916ab76/0_165_5754_3453/500.jpg"
        },
        "isHosted": false,
        "pillarId": "pillar/news",
        "pillarName": "News"
      }
    ]
  }
}
